{
    "id": 1,
    "goodsno": "6344190",
    "ob_product_id": 0,
    "opt1nm": "색상",
    "opt2nm": "사이즈",
    "opttype": "double",
    "goodsnm": "여자 겨울 목폴라 무지 솔리드 기본핏 슬림핏 티셔츠",
    "longdesc": "\n<center>\r\n\r\n<img alt=\"\" src=\"https://sevenjs.diskn.com/retail/osjarak/banner/intro_1.jpg\" width=\"100%\">\r\n<br>\r\n<a href=\"http://pf.kakao.com/_LxgNPd/friend\">\r\n<img alt=\"\" src=\"https://sevenjs.diskn.com/retail/osjarak/banner/osjarak_kakao.jpg\" width=\"100%\"></a>\r\n<br>\r\n<img alt=\"\" src=\"https://sevenjs.diskn.com/retail/osjarak/banner/intro_2.jpg\" width=\"100%\">\r\n<br>\r\n<img alt=\"\" src=\"https://sevenjs.diskn.com/retail/osjarak/banner/osjarak_logo_1.jpg\" width=\"100%\">\r\n<br>\r\n<img alt=\"\" src=\"https://sevenjs.diskn.com/retail/osjarak/page/WT/WT3288/WT3288.jpg\" width=\"100%\">\r\n<br>\r\n<img alt=\"\" src=\"https://sevenjs.diskn.com/retail/osjarak/banner/outro_1.jpg\" width=\"100%\">\r\n<br>\r\n<img alt=\"\" src=\"https://sevenjs.diskn.com/retail/osjarak/banner/outro_2.jpg\" width=\"100%\">\r\n<br>\r\n</center>\n<br />\n\n\n",
    "open": 1,
    "runout": 0,
    "imgs": [
        "http://i.lately.co.kr/8/2012/01/A190020289840_700_700.jpg",
        "http://i.lately.co.kr/8/2012/01/A190020289842_700_700.jpg",
        "http://i.lately.co.kr/8/2012/01/A190020289841_700_700.jpg"
    ],
    "options": [
        {
            "optno": 62603582,
            "goodsno": 6344190,
            "ob_product_option_id": "",
            "ob_product_id": "",
            "opt1": "WT3288_블랙",
            "opt2": "FREE",
            "opt1_eng": "WT3288_블랙",
            "opt2_eng": "FREE",
            "exchange_price": 26.67,
            "krw_price": 32000,
            "consumer": 40000,
            "supply": 0,
            "stock": 999,
            "option_state": ""
        },
        {
            "optno": 62603583,
            "goodsno": 6344190,
            "ob_product_option_id": "",
            "ob_product_id": "",
            "opt1": "WT3288_밤색",
            "opt2": "FREE",
            "opt1_eng": "WT3288_밤색",
            "opt2_eng": "FREE",
            "exchange_price": 26.67,
            "krw_price": 32000,
            "consumer": 40000,
            "supply": 0,
            "stock": 999,
            "option_state": ""
        },
        {
            "optno": 62603584,
            "goodsno": 6344190,
            "ob_product_option_id": "",
            "ob_product_id": "",
            "opt1": "WT3288_그레이",
            "opt2": "FREE",
            "opt1_eng": "WT3288_그레이",
            "opt2_eng": "FREE",
            "exchange_price": 26.67,
            "krw_price": 32000,
            "consumer": 40000,
            "supply": 0,
            "stock": 999,
            "option_state": ""
        },
        {
            "optno": 62603585,
            "goodsno": 6344190,
            "ob_product_option_id": "",
            "ob_product_id": "",
            "opt1": "WT3288_아이보리",
            "opt2": "FREE",
            "opt1_eng": "WT3288_아이보리",
            "opt2_eng": "FREE",
            "exchange_price": 26.67,
            "krw_price": 32000,
            "consumer": 40000,
            "supply": 0,
            "stock": 999,
            "option_state": ""
        },
        {
            "optno": 62603586,
            "goodsno": 6344190,
            "ob_product_option_id": "",
            "ob_product_id": "",
            "opt1": "WT3288_핑크",
            "opt2": "FREE",
            "opt1_eng": "WT3288_핑크",
            "opt2_eng": "FREE",
            "exchange_price": 26.67,
            "krw_price": 32000,
            "consumer": 40000,
            "supply": 0,
            "stock": 999,
            "option_state": ""
        },
        {
            "optno": 62603587,
            "goodsno": 6344190,
            "ob_product_option_id": "",
            "ob_product_id": "",
            "opt1": "WT3288_소라",
            "opt2": "FREE",
            "opt1_eng": "WT3288_소라",
            "opt2_eng": "FREE",
            "exchange_price": 26.67,
            "krw_price": 32000,
            "consumer": 40000,
            "supply": 0,
            "stock": 999,
            "option_state": ""
        }
    ]
}

